Versuch1/Versuchergbnisse/30cmEntfernung.csv

Record Length,2500,Points,-22.00000004E-9,527.999937534E-3,
Sample Interval,100.0000009E-12,s,-21.90000004E-9,527.999937534E-3,
Trigger Point,219.99999750,Samples,-21.80000003E-9,527.999937534E-3,
,,,-21.70000002E-9,527.999937534E-3,
,,,-21.60000001E-9,527.999937534E-3,
,,,-21.50000000E-9,527.999937534E-3,
Source,CH1,,-21.39999999E-9,535.999953747E-3,
Vertical Units,Volts,,-21.29999999E-9,535.999953747E-3,
Vertical Scale,204.78123589E-3,,-21.19999998E-9,535.999953747E-3,
Vertical Offset,0,,-21.09999997E-9,535.999953747E-3,
Horizontal Units,s,,-20.99999996E-9,535.999953747E-3,
Horizontal Scale,25.00000033E-9,,-20.89999995E-9,535.999953747E-3,
Pt Fmt,Y,,-20.79999994E-9,527.999937534E-3,
Yzero,-4.10193804,,-20.69999994E-9,527.999937534E-3,
Probe Atten,1.000000,,-20.59999993E-9,527.999937534E-3,
,,,-20.49999992E-9,527.999937534E-3,
Note,TDS 2022B - 15:19:35   29.10.2018,,-20.39999991E-9,527.999937534E-3,
,,,-20.29999990E-9,527.999937534E-3,
,,,-20.19999989E-9,527.999937534E-3,
,,,-20.09999989E-9,527.999937534E-3,
,,,-19.9999999E-9,527.999937534E-3,
,,,-19.8999999E-9,535.999953747E-3,
,,,-19.7999999E-9,535.999953747E-3,
,,,-19.6999999E-9,535.999953747E-3,
,,,-19.5999998E-9,535.999953747E-3,
,,,-19.4999998E-9,535.999953747E-3,
,,,-19.3999998E-9,535.999953747E-3,
,,,-19.2999998E-9,535.999953747E-3,
,,,-19.1999998E-9,535.999953747E-3,
,,,-19.0999998E-9,535.999953747E-3,
,,,-18.9999998E-9,535.999953747E-3,
,,,-18.8999998E-9,535.999953747E-3,
,,,-18.7999998E-9,527.999937534E-3,
,,,-18.6999998E-9,527.999937534E-3,
,,,-18.5999998E-9,527.999937534E-3,
,,,-18.4999998E-9,527.999937534E-3,
,,,-18.3999997E-9,527.999937534E-3,
,,,-18.2999997E-9,527.999937534E-3,
,,,-18.1999997E-9,527.999937534E-3,
,,,-18.0999997E-9,527.999937534E-3,
,,,-17.9999997E-9,527.999937534E-3,
,,,-17.8999997E-9,535.999953747E-3,
,,,-17.7999997E-9,535.999953747E-3,
,,,-17.6999997E-9,535.999953747E-3,
,,,-17.5999997E-9,535.999953747E-3,
,,,-17.4999997E-9,535.999953747E-3,
,,,-17.3999997E-9,535.999953747E-3,
,,,-17.2999997E-9,527.999937534E-3,
,,,-17.1999996E-9,527.999937534E-3,
,,,-17.0999996E-9,519.999980927E-3,
,,,-16.9999996E-9,519.999980927E-3,
,,,-16.8999996E-9,519.999980927E-3,
,,,-16.7999996E-9,511.999964714E-3,
,,,-16.6999996E-9,511.999964714E-3,
,,,-16.5999996E-9,511.999964714E-3,
,,,-16.4999996E-9,511.999964714E-3,
,,,-16.3999996E-9,519.999980927E-3,
,,,-16.2999996E-9,519.999980927E-3,
,,,-16.1999996E-9,519.999980927E-3,
,,,-16.0999996E-9,519.999980927E-3,
,,,-15.9999995E-9,519.999980927E-3,
,,,-15.8999995E-9,527.999937534E-3,
,,,-15.7999995E-9,519.999980927E-3,
,,,-15.6999995E-9,519.999980927E-3,
,,,-15.5999995E-9,519.999980927E-3,
,,,-15.4999995E-9,519.999980927E-3,
,,,-15.3999995E-9,519.999980927E-3,
,,,-15.2999995E-9,519.999980927E-3,
,,,-15.1999995E-9,519.999980927E-3,
,,,-15.0999995E-9,519.999980927E-3,
,,,-14.9999995E-9,519.999980927E-3,
,,,-14.9000003E-9,527.999937534E-3,
,,,-14.8000003E-9,519.999980927E-3,
,,,-14.7000003E-9,519.999980927E-3,
,,,-14.6000003E-9,519.999980927E-3,
,,,-14.5000003E-9,519.999980927E-3,
,,,-14.4000003E-9,519.999980927E-3,
,,,-14.3000003E-9,519.999980927E-3,
,,,-14.2000003E-9,519.999980927E-3,
,,,-14.1000003E-9,519.999980927E-3,
,,,-14.0000003E-9,519.999980927E-3,
,,,-13.9000003E-9,527.999937534E-3,
,,,-13.8000003E-9,519.999980927E-3,
,,,-13.7000002E-9,519.999980927E-3,
,,,-13.6000002E-9,519.999980927E-3,
,,,-13.5000002E-9,519.999980927E-3,
,,,-13.4000002E-9,519.999980927E-3,
,,,-13.3000002E-9,511.999964714E-3,
,,,-13.2000002E-9,511.999964714E-3,
,,,-13.1000002E-9,511.999964714E-3,
,,,-13.0000002E-9,511.999964714E-3,
,,,-12.9000002E-9,519.999980927E-3,
,,,-12.8000002E-9,519.999980927E-3,
,,,-12.7000002E-9,519.999980927E-3,
,,,-12.6000002E-9,527.999937534E-3,
,,,-12.5000001E-9,527.999937534E-3,
,,,-12.4000001E-9,535.999953747E-3,
,,,-12.3000001E-9,535.999953747E-3,
,,,-12.2000001E-9,535.999953747E-3,
,,,-12.1000001E-9,535.999953747E-3,
,,,-12.0000001E-9,543.999969959E-3,
,,,-11.9000001E-9,543.999969959E-3,
,,,-11.8000001E-9,543.999969959E-3,
,,,-11.7000001E-9,543.999969959E-3,
,,,-11.6000001E-9,543.999969959E-3,
,,,-11.5000001E-9,543.999969959E-3,
,,,-11.4000001E-9,543.999969959E-3,
,,,-11.3000000E-9,543.999969959E-3,
,,,-11.2000000E-9,543.999969959E-3,
,,,-11.1000000E-9,543.999969959E-3,
,,,-11.0000000E-9,543.999969959E-3,
,,,-10.9000000E-9,543.999969959E-3,
,,,-10.8000000E-9,543.999969959E-3,
,,,-10.7000000E-9,543.999969959E-3,
,,,-10.6000000E-9,543.999969959E-3,
,,,-10.5000000E-9,543.999969959E-3,
,,,-10.4000000E-9,551.999986172E-3,
,,,-10.3000000E-9,551.999986172E-3,
,,,-10.2000000E-9,551.999986172E-3,
,,,-10.0999999E-9,551.999986172E-3,
,,,-9.999999939E-9,551.999986172E-3,
,,,-9.899999931E-9,559.999942780E-3,
,,,-9.799999923E-9,559.999942780E-3,
,,,-9.699999914E-9,559.999942780E-3,
,,,-9.599999906E-9,559.999942780E-3,
,,,-9.499999898E-9,559.999942780E-3,
,,,-9.399999890E-9,567.999958992E-3,
,,,-9.299999881E-9,567.999958992E-3,
,,,-9.199999873E-9,567.999958992E-3,
,,,-9.099999865E-9,567.999958992E-3,
,,,-8.999999856E-9,567.999958992E-3,
,,,-8.899999848E-9,575.999975204E-3,
,,,-8.799999840E-9,575.999975204E-3,
,,,-8.699999832E-9,575.999975204E-3,
,,,-8.599999823E-9,583.999931812E-3,
,,,-8.499999815E-9,583.999931812E-3,
,,,-8.399999807E-9,591.999948025E-3,
,,,-8.299999799E-9,591.999948025E-3,
,,,-8.199999790E-9,591.999948025E-3,
,,,-8.099999782E-9,591.999948025E-3,
,,,-7.999999774E-9,591.999948025E-3,
,,,-7.899999765E-9,599.999964237E-3,
,,,-7.799999757E-9,599.999964237E-3,
,,,-7.699999749E-9,599.999964237E-3,
,,,-7.599999741E-9,607.999980450E-3,
,,,-7.499999732E-9,607.999980450E-3,
,,,-7.399999724E-9,615.999937057E-3,
,,,-7.29999972E-9,615.999937057E-3,
,,,-7.19999971E-9,623.999953270E-3,
,,,-7.09999970E-9,623.999953270E-3,
,,,-6.99999969E-9,631.999969482E-3,
,,,-6.89999968E-9,639.999985695E-3,
,,,-6.79999967E-9,639.999985695E-3,
,,,-6.69999967E-9,647.999942303E-3,
,,,-6.59999966E-9,647.999942303E-3,
,,,-6.49999965E-9,655.999958515E-3,
,,,-6.39999964E-9,663.999974728E-3,
,,,-6.29999963E-9,663.999974728E-3,
,,,-6.19999962E-9,671.999931335E-3,
,,,-6.09999962E-9,671.999931335E-3,
,,,-5.99999961E-9,679.999947548E-3,
,,,-5.90000004E-9,687.999963760E-3,
,,,-5.80000004E-9,687.999963760E-3,
,,,-5.70000003E-9,695.999979973E-3,
,,,-5.60000002E-9,703.999936581E-3,
,,,-5.50000001E-9,711.999952793E-3,
,,,-5.40000000E-9,719.999969006E-3,
,,,-5.29999999E-9,719.999969006E-3,
,,,-5.19999999E-9,727.999925613E-3,
,,,-5.09999998E-9,735.999941826E-3,
,,,-4.99999997E-9,743.999958038E-3,
,,,-4.89999996E-9,751.999974251E-3,
,,,-4.79999995E-9,751.999974251E-3,
,,,-4.69999994E-9,759.999930859E-3,
,,,-4.59999994E-9,767.999947071E-3,
,,,-4.49999993E-9,775.999963284E-3,
,,,-4.39999992E-9,783.999919891E-3,
,,,-4.29999991E-9,783.999919891E-3,
,,,-4.19999990E-9,791.999936104E-3,
,,,-4.09999990E-9,799.999952316E-3,
,,,-3.99999989E-9,807.999968529E-3,
,,,-3.89999988E-9,815.999925137E-3,
,,,-3.79999987E-9,823.999941349E-3,
,,,-3.69999986E-9,823.999941349E-3,
,,,-3.59999985E-9,831.999957561E-3,
,,,-3.49999985E-9,847.999930382E-3,
,,,-3.39999984E-9,855.999946594E-3,
,,,-3.29999983E-9,863.999962807E-3,
,,,-3.19999982E-9,871.999919415E-3,
,,,-3.09999981E-9,879.999935627E-3,
,,,-2.99999980E-9,887.999951839E-3,
,,,-2.89999980E-9,903.999924660E-3,
,,,-2.79999979E-9,911.999940872E-3,
,,,-2.6999998E-9,919.999957085E-3,
,,,-2.5999998E-9,927.999913692E-3,
,,,-2.4999998E-9,935.999929905E-3,
,,,-2.3999998E-9,951.999962330E-3,
,,,-2.2999997E-9,959.999918938E-3,
,,,-2.1999997E-9,967.999935150E-3,
,,,-2.0999997E-9,975.999951363E-3,
,,,-1.9999997E-9,983.999907970E-3,
,,,-1.8999997E-9,991.999924183E-3,
,,,-1.7999998E-9,999.999940395E-3,
,,,-1.6999998E-9,1.0079999,
,,,-1.5999998E-9,1.0159999,
,,,-1.4999998E-9,1.0239999,
,,,-1.3999998E-9,1.0319999,
,,,-1.2999998E-9,1.0400000,
,,,-1.1999998E-9,1.0480000,
,,,-1.0999998E-9,1.0559999,
,,,-999.999745577E-12,1.0639999,
,,,-899.999737713E-12,1.0799999,
,,,-799.999729849E-12,1.0879999,
,,,-699.999777495E-12,1.0960000,
,,,-599.999769631E-12,1.1040000,
,,,-499.999761766E-12,1.1119999,
,,,-399.99975390E-12,1.1279999,
,,,-299.99974604E-12,1.1359999,
,,,-199.99975205E-12,1.1439999,
,,,-99.999751125E-12,1.1520000,
,,,0.0,1.1600000,
,,,100.0002507E-12,1.1679999,
,,,200.00025165E-12,1.1759999,
,,,300.00024564E-12,1.1839999,
,,,400.00025350E-12,1.1919999,
,,,500.000261367E-12,1.1999999,
,,,600.000269231E-12,1.2079999,
,,,700.000277096E-12,1.2160000,
,,,800.000284960E-12,1.2239999,
,,,900.000237313E-12,1.2319999,
,,,1.0000003E-9,1.2399999,
,,,1.1000003E-9,1.2479999,
,,,1.2000003E-9,1.2559999,
,,,1.3000002E-9,1.2639999,
,,,1.4000002E-9,1.2720000,
,,,1.5000002E-9,1.2800000,
,,,1.6000002E-9,1.2879999,
,,,1.7000003E-9,1.2879999,
,,,1.8000003E-9,1.2959999,
,,,1.9000004E-9,1.3039999,
,,,2.0000002E-9,1.3119999,
,,,2.1000002E-9,1.3199999,
,,,2.2000002E-9,1.3279999,
,,,2.3000002E-9,1.3360000,
,,,2.4000002E-9,1.3439999,
,,,2.5000002E-9,1.3519999,
,,,2.6000002E-9,1.3599999,
,,,2.7000002E-9,1.3599999,
,,,2.80000023E-9,1.3679999,
,,,2.90000024E-9,1.3679999,
,,,3.00000025E-9,1.3679999,
,,,3.10000026E-9,1.3759999,
,,,3.20000026E-9,1.3759999,
,,,3.30000027E-9,1.3759999,
,,,3.40000028E-9,1.3839999,
,,,3.50000029E-9,1.3839999,
,,,3.60000030E-9,1.3920000,
,,,3.70000031E-9,1.3920000,
,,,3.80000031E-9,1.3920000,
,,,3.90000032E-9,1.3920000,
,,,4.00000033E-9,1.3920000,
,,,4.10000034E-9,1.3999999,
,,,4.20000035E-9,1.3999999,
,,,4.30000036E-9,1.3999999,
,,,4.40000036E-9,1.3999999,
,,,4.50000037E-9,1.3999999,
,,,4.60000038E-9,1.4079999,
,,,4.70000039E-9,1.4079999,
,,,4.80000040E-9,1.4079999,
,,,4.90000041E-9,1.4079999,
,,,5.00000041E-9,1.4079999,
,,,5.10000042E-9,1.4079999,
,,,5.20000043E-9,1.4079999,
,,,5.30000044E-9,1.3999999,
,,,5.40000045E-9,1.3999999,
,,,5.50000046E-9,1.3999999,
,,,5.60000046E-9,1.3999999,
,,,5.70000047E-9,1.3920000,
,,,5.80000048E-9,1.3920000,
,,,5.90000049E-9,1.3839999,
,,,6.00000050E-9,1.3759999,
,,,6.10000050E-9,1.3759999,
,,,6.20000051E-9,1.3679999,
,,,6.30000052E-9,1.3599999,
,,,6.40000053E-9,1.3599999,
,,,6.50000054E-9,1.3519999,
,,,6.60000055E-9,1.3519999,
,,,6.70000055E-9,1.3439999,
,,,6.80000056E-9,1.3439999,
,,,6.90000013E-9,1.3360000,
,,,7.00000014E-9,1.3279999,
,,,7.10000014E-9,1.3279999,
,,,7.20000015E-9,1.3199999,
,,,7.30000016E-9,1.3119999,
,,,7.400000168E-9,1.3039999,
,,,7.500000621E-9,1.2959999,
,,,7.600000629E-9,1.2879999,
,,,7.700000637E-9,1.2800000,
,,,7.800000645E-9,1.2639999,
,,,7.900000654E-9,1.2559999,
,,,8.000000662E-9,1.2479999,
,,,8.100000670E-9,1.2399999,
,,,8.200000678E-9,1.2239999,
,,,8.300000687E-9,1.2160000,
,,,8.400000695E-9,1.1999999,
,,,8.500000703E-9,1.1839999,
,,,8.600000712E-9,1.1759999,
,,,8.700000720E-9,1.1600000,
,,,8.800000728E-9,1.1520000,
,,,8.900000736E-9,1.1359999,
,,,9.000000745E-9,1.1199999,
,,,9.100000753E-9,1.1119999,
,,,9.200000761E-9,1.0960000,
,,,9.300000769E-9,1.0799999,
,,,9.400000778E-9,1.0639999,
,,,9.500000786E-9,1.0480000,
,,,9.600000794E-9,1.0319999,
,,,9.700000803E-9,1.0159999,
,,,9.800000811E-9,999.999940395E-3,
,,,9.900000819E-9,983.999907970E-3,
,,,10.0000008E-9,967.999935150E-3,
,,,10.0999999E-9,959.999918938E-3,
,,,10.2000000E-9,943.999946117E-3,
,,,10.3000000E-9,919.999957085E-3,
,,,10.4000000E-9,903.999924660E-3,
,,,10.5000000E-9,887.999951839E-3,
,,,10.6000000E-9,871.999919415E-3,
,,,10.7000000E-9,847.999930382E-3,
,,,10.8000000E-9,831.999957561E-3,
,,,10.9000000E-9,807.999968529E-3,
,,,11.0000000E-9,791.999936104E-3,
,,,11.1000000E-9,775.999963284E-3,
,,,11.2000000E-9,759.999930859E-3,
,,,11.3000000E-9,743.999958038E-3,
,,,11.4000001E-9,727.999925613E-3,
,,,11.5000001E-9,711.999952793E-3,
,,,11.6000001E-9,695.999979973E-3,
,,,11.7000001E-9,671.999931335E-3,
,,,11.8000001E-9,655.999958515E-3,
,,,11.9000001E-9,639.999985695E-3,
,,,12.0000001E-9,623.999953270E-3,
,,,12.1000001E-9,607.999980450E-3,
,,,12.2000001E-9,591.999948025E-3,
,,,12.3000001E-9,575.999975204E-3,
,,,12.4000001E-9,559.999942780E-3,
,,,12.5000001E-9,543.999969959E-3,
,,,12.6000002E-9,527.999937534E-3,
,,,12.7000002E-9,503.999948502E-3,
,,,12.8000002E-9,487.999975681E-3,
,,,12.9000002E-9,471.999973059E-3,
,,,13.0000002E-9,455.999970436E-3,
,,,13.1000002E-9,439.999967813E-3,
,,,13.2000002E-9,415.999978781E-3,
,,,13.3000002E-9,399.99997616E-3,
,,,13.4000002E-9,383.99997354E-3,
,,,13.5000002E-9,367.99997091E-3,
,,,13.6000002E-9,351.99996829E-3,
,,,13.7000002E-9,335.99996567E-3,
,,,13.8000003E-9,319.99999285E-3,
,,,13.9000003E-9,303.99999022E-3,
,,,14.0000003E-9,287.99998760E-3,
,,,14.1000003E-9,271.99998498E-3,
,,,14.2000003E-9,255.99998236E-3,
,,,14.3000003E-9,239.99997973E-3,
,,,14.4000003E-9,223.99997711E-3,
,,,14.5000003E-9,207.99998939E-3,
,,,14.6000003E-9,199.99998808E-3,
,,,14.7000003E-9,183.99998546E-3,
,,,14.8000003E-9,167.99998283E-3,
,,,14.9000003E-9,159.99999642E-3,
,,,15.0000012E-9,143.9999938E-3,
,,,15.1000012E-9,135.9999925E-3,
,,,15.2000013E-9,119.9999899E-3,
,,,15.3000013E-9,103.9999947E-3,
,,,15.4000013E-9,95.999993384E-3,
,,,15.5000013E-9,79.999998212E-3,
,,,15.6000013E-9,71.999996901E-3,
,,,15.7000013E-9,55.999994278E-3,
,,,15.8000013E-9,47.99999669E-3,
,,,15.9000013E-9,39.99999911E-3,
,,,16.0000013E-9,31.99999779E-3,
,,,16.1000013E-9,23.99999835E-3,
,,,16.2000013E-9,15.9999989E-3,
,,,16.3000013E-9,7.999999449E-3,
,,,16.4000014E-9,0.0,
,,,16.4999996E-9,-7.999999449E-3,
,,,16.5999996E-9,-15.9999989E-3,
,,,16.6999996E-9,-31.99999779E-3,
,,,16.7999996E-9,-39.99999911E-3,
,,,16.8999996E-9,-47.99999669E-3,
,,,16.9999996E-9,-55.999994278E-3,
,,,17.0999996E-9,-63.999995589E-3,
,,,17.1999996E-9,-71.999996901E-3,
,,,17.2999997E-9,-71.999996901E-3,
,,,17.3999997E-9,-79.999998212E-3,
,,,17.4999997E-9,-79.999998212E-3,
,,,17.5999997E-9,-79.999998212E-3,
,,,17.6999997E-9,-87.999992073E-3,
,,,17.7999997E-9,-95.999993384E-3,
,,,17.8999997E-9,-95.999993384E-3,
,,,17.9999997E-9,-103.9999947E-3,
,,,18.0999997E-9,-103.9999947E-3,
,,,18.1999997E-9,-111.9999886E-3,
,,,18.2999997E-9,-111.9999886E-3,
,,,18.3999997E-9,-111.9999886E-3,
,,,18.4999998E-9,-111.9999886E-3,
,,,18.5999998E-9,-111.9999886E-3,
,,,18.6999998E-9,-111.9999886E-3,
,,,18.7999998E-9,-111.9999886E-3,
,,,18.8999998E-9,-111.9999886E-3,
,,,18.9999998E-9,-111.9999886E-3,
,,,19.0999998E-9,-103.9999947E-3,
,,,19.1999998E-9,-103.9999947E-3,
,,,19.2999998E-9,-103.9999947E-3,
,,,19.3999998E-9,-103.9999947E-3,
,,,19.4999998E-9,-103.9999947E-3,
,,,19.5999998E-9,-103.9999947E-3,
,,,19.6999999E-9,-103.9999947E-3,
,,,19.7999999E-9,-103.9999947E-3,
,,,19.8999999E-9,-95.999993384E-3,
,,,19.9999999E-9,-95.999993384E-3,
,,,20.09999989E-9,-87.999992073E-3,
,,,20.19999989E-9,-87.999992073E-3,
,,,20.29999990E-9,-79.999998212E-3,
,,,20.39999991E-9,-79.999998212E-3,
,,,20.49999992E-9,-71.999996901E-3,
,,,20.59999993E-9,-63.999995589E-3,
,,,20.69999994E-9,-55.999994278E-3,
,,,20.79999994E-9,-47.99999669E-3,
,,,20.89999995E-9,-39.99999911E-3,
,,,20.99999996E-9,-31.99999779E-3,
,,,21.09999997E-9,-15.9999989E-3,
,,,21.19999998E-9,-7.999999449E-3,
,,,21.29999999E-9,0.0,
,,,21.39999999E-9,7.999999449E-3,
,,,21.50000000E-9,15.9999989E-3,
,,,21.60000001E-9,31.99999779E-3,
,,,21.70000002E-9,39.99999911E-3,
,,,21.80000003E-9,55.999994278E-3,
,,,21.90000004E-9,63.999995589E-3,
,,,22.00000004E-9,79.999998212E-3,
,,,22.10000005E-9,95.999993384E-3,
,,,22.20000006E-9,103.9999947E-3,
,,,22.30000007E-9,119.9999899E-3,
,,,22.40000008E-9,127.9999912E-3,
,,,22.50000009E-9,143.9999938E-3,
,,,22.60000009E-9,159.99999642E-3,
,,,22.70000010E-9,167.99998283E-3,
,,,22.80000011E-9,183.99998546E-3,
,,,22.90000012E-9,191.99998677E-3,
,,,23.00000013E-9,207.99998939E-3,
,,,23.10000013E-9,223.99997711E-3,
,,,23.20000014E-9,231.99997842E-3,
,,,23.30000015E-9,247.99998105E-3,
,,,23.40000016E-9,263.99996877E-3,
,,,23.50000017E-9,287.99998760E-3,
,,,23.60000018E-9,303.99999022E-3,
,,,23.70000018E-9,319.99999285E-3,
,,,23.80000019E-9,335.99996567E-3,
,,,23.90000020E-9,351.99996829E-3,
,,,24.00000021E-9,367.99997091E-3,
,,,24.10000022E-9,391.99995995E-3,
,,,24.20000023E-9,407.999962568E-3,
,,,24.30000023E-9,423.999965191E-3,
,,,24.40000024E-9,439.999967813E-3,
,,,24.50000025E-9,455.999970436E-3,
,,,24.60000026E-9,479.999959469E-3,
,,,24.70000027E-9,495.999962091E-3,
,,,24.80000028E-9,511.999964714E-3,
,,,24.90000028E-9,527.999937534E-3,
,,,25.00000029E-9,543.999969959E-3,
,,,25.10000030E-9,567.999958992E-3,
,,,25.20000031E-9,583.999931812E-3,
,,,25.30000032E-9,599.999964237E-3,
,,,25.40000033E-9,615.999937057E-3,
,,,25.50000033E-9,631.999969482E-3,
,,,25.60000034E-9,647.999942303E-3,
,,,25.70000035E-9,663.999974728E-3,
,,,25.80000036E-9,679.999947548E-3,
,,,25.90000037E-9,695.999979973E-3,
,,,26.00000037E-9,711.999952793E-3,
,,,26.10000038E-9,735.999941826E-3,
,,,26.20000039E-9,751.999974251E-3,
,,,26.30000040E-9,767.999947071E-3,
,,,26.40000041E-9,783.999919891E-3,
,,,26.50000042E-9,799.999952316E-3,
,,,26.60000042E-9,823.999941349E-3,
,,,26.70000043E-9,839.999914169E-3,
,,,26.80000044E-9,855.999946594E-3,
,,,26.90000045E-9,871.999919415E-3,
,,,27.00000046E-9,887.999951839E-3,
,,,27.10000047E-9,903.999924660E-3,
,,,27.20000047E-9,919.999957085E-3,
,,,27.30000048E-9,935.999929905E-3,
,,,27.40000049E-9,951.999962330E-3,
,,,27.50000050E-9,967.999935150E-3,
,,,27.60000051E-9,983.999907970E-3,
,,,27.70000052E-9,991.999924183E-3,
,,,27.80000052E-9,1.0079999,
,,,27.90000053E-9,1.0239999,
,,,28.00000054E-9,1.0400000,
,,,28.10000055E-9,1.0559999,
,,,28.20000056E-9,1.0639999,
,,,28.30000057E-9,1.0799999,
,,,28.40000057E-9,1.0960000,
,,,28.50000058E-9,1.1119999,
,,,28.60000059E-9,1.1279999,
,,,28.70000060E-9,1.1359999,
,,,28.80000061E-9,1.1520000,
,,,28.90000061E-9,1.1600000,
,,,29.00000062E-9,1.1759999,
,,,29.10000063E-9,1.1919999,
,,,29.20000064E-9,1.1999999,
,,,29.30000065E-9,1.2160000,
,,,29.40000066E-9,1.2319999,
,,,29.50000066E-9,1.2479999,
,,,29.60000067E-9,1.2639999,
,,,29.70000068E-9,1.2720000,
,,,29.80000069E-9,1.2879999,
,,,29.90000070E-9,1.3039999,
,,,29.99999893E-9,1.3119999,
,,,30.10000071E-9,1.3279999,
,,,30.19999895E-9,1.3360000,
,,,30.30000073E-9,1.3439999,
,,,30.39999896E-9,1.3519999,
,,,30.50000075E-9,1.3679999,
,,,30.59999898E-9,1.3759999,
,,,30.70000076E-9,1.3839999,
,,,30.79999900E-9,1.3920000,
,,,30.90000078E-9,1.3999999,
,,,30.99999901E-9,1.4079999,
,,,31.10000080E-9,1.4159999,
,,,31.19999903E-9,1.4239999,
,,,31.30000081E-9,1.4239999,
,,,31.39999905E-9,1.4319999,
,,,31.50000083E-9,1.4399999,
,,,31.59999906E-9,1.4480000,
,,,31.70000085E-9,1.4480000,
,,,31.79999908E-9,1.4559999,
,,,31.90000086E-9,1.4559999,
,,,31.99999909E-9,1.4639999,
,,,32.10000088E-9,1.4719999,
,,,32.19999911E-9,1.4719999,
,,,32.30000090E-9,1.4799999,
,,,32.39999913E-9,1.4799999,
,,,32.50000091E-9,1.4879999,
,,,32.59999914E-9,1.4959999,
,,,32.70000093E-9,1.4959999,
,,,32.79999916E-9,1.5039999,
,,,32.90000095E-9,1.5039999,
,,,32.99999918E-9,1.5039999,
,,,33.10000096E-9,1.5119998,
,,,33.19999919E-9,1.5119998,
,,,33.30000098E-9,1.5119998,
,,,33.39999921E-9,1.5119998,
,,,33.50000100E-9,1.5199999,
,,,33.59999923E-9,1.5199999,
,,,33.70000101E-9,1.5199999,
,,,33.79999924E-9,1.5199999,
,,,33.90000103E-9,1.5199999,
,,,33.99999926E-9,1.5199999,
,,,34.10000105E-9,1.5199999,
,,,34.19999928E-9,1.5199999,
,,,34.30000106E-9,1.5119998,
,,,34.39999929E-9,1.5119998,
,,,34.50000108E-9,1.5119998,
,,,34.59999931E-9,1.5119998,
,,,34.70000109E-9,1.5039999,
,,,34.79999933E-9,1.5039999,
,,,34.90000111E-9,1.4959999,
,,,34.99999934E-9,1.4879999,
,,,35.10000113E-9,1.4879999,
,,,35.19999936E-9,1.4799999,
,,,35.30000114E-9,1.4719999,
,,,35.39999938E-9,1.4719999,
,,,35.50000116E-9,1.4639999,
,,,35.59999939E-9,1.4639999,
,,,35.70000118E-9,1.4559999,
,,,35.79999941E-9,1.4480000,
,,,35.90000119E-9,1.4480000,
,,,35.99999943E-9,1.4399999,
,,,36.10000121E-9,1.4399999,
,,,36.19999944E-9,1.4319999,
,,,36.30000123E-9,1.4319999,
,,,36.39999946E-9,1.4239999,
,,,36.50000124E-9,1.4159999,
,,,36.59999948E-9,1.4159999,
,,,36.70000126E-9,1.4079999,
,,,36.79999949E-9,1.3999999,
,,,36.90000128E-9,1.3920000,
,,,36.99999951E-9,1.3839999,
,,,37.10000129E-9,1.3759999,
,,,37.19999953E-9,1.3679999,
,,,37.30000131E-9,1.3599999,
,,,37.39999954E-9,1.3519999,
