Versuch1/Versuchergbnisse/DINA4BlattBreite.csv

Record Length,2500,Points,-5.99999961E-9,919.999957085E-3,
Sample Interval,100.0000009E-12,s,-5.89999960E-9,927.999913692E-3,
Trigger Point,59.999995282,Samples,-5.79999959E-9,935.999929905E-3,
,,,-5.69999958E-9,943.999946117E-3,
,,,-5.59999958E-9,943.999946117E-3,
,,,-5.49999957E-9,951.999962330E-3,
Source,CH1,,-5.39999956E-9,959.999918938E-3,
Vertical Units,Volts,,-5.29999955E-9,967.999935150E-3,
Vertical Scale,204.78123589E-3,,-5.19999954E-9,975.999951363E-3,
Vertical Offset,0,,-5.09999953E-9,975.999951363E-3,
Horizontal Units,s,,-4.99999953E-9,983.999907970E-3,
Horizontal Scale,25.00000033E-9,,-4.89999952E-9,983.999907970E-3,
Pt Fmt,Y,,-4.79999951E-9,991.999924183E-3,
Yzero,-4.80512742,,-4.69999950E-9,999.999940395E-3,
Probe Atten,1.000000,,-4.59999949E-9,1.0079999,
,,,-4.49999948E-9,1.0079999,
Note,TDS 2022B - 16:03:10   29.10.2018,,-4.39999948E-9,1.0239999,
,,,-4.29999947E-9,1.0319999,
,,,-4.19999946E-9,1.0400000,
,,,-4.09999945E-9,1.0480000,
,,,-3.99999944E-9,1.0559999,
,,,-3.89999943E-9,1.0639999,
,,,-3.79999943E-9,1.0719999,
,,,-3.69999964E-9,1.0799999,
,,,-3.59999963E-9,1.0799999,
,,,-3.49999962E-9,1.0879999,
,,,-3.39999962E-9,1.0960000,
,,,-3.29999961E-9,1.1040000,
,,,-3.19999960E-9,1.1119999,
,,,-3.09999959E-9,1.1199999,
,,,-2.99999958E-9,1.1279999,
,,,-2.89999957E-9,1.1359999,
,,,-2.79999957E-9,1.1439999,
,,,-2.6999996E-9,1.1600000,
,,,-2.5999995E-9,1.1600000,
,,,-2.4999995E-9,1.1679999,
,,,-2.3999995E-9,1.1759999,
,,,-2.2999995E-9,1.1839999,
,,,-2.1999995E-9,1.1919999,
,,,-2.0999995E-9,1.1999999,
,,,-1.9999995E-9,1.2079999,
,,,-1.8999995E-9,1.2160000,
,,,-1.7999996E-9,1.2239999,
,,,-1.6999996E-9,1.2399999,
,,,-1.5999996E-9,1.2479999,
,,,-1.4999996E-9,1.2559999,
,,,-1.3999996E-9,1.2639999,
,,,-1.2999996E-9,1.2720000,
,,,-1.1999995E-9,1.2800000,
,,,-1.0999995E-9,1.2879999,
,,,-999.999523533E-12,1.2959999,
,,,-899.999515668E-12,1.3039999,
,,,-799.999507804E-12,1.3119999,
,,,-699.999555451E-12,1.3279999,
,,,-599.999547586E-12,1.3360000,
,,,-499.999539722E-12,1.3439999,
,,,-399.99953186E-12,1.3519999,
,,,-299.99952399E-12,1.3599999,
,,,-199.99953001E-12,1.3759999,
,,,-99.999529081E-12,1.3839999,
,,,0.0,1.3920000,
,,,100.0004728E-12,1.3999999,
,,,200.00047370E-12,1.4079999,
,,,300.00046768E-12,1.4159999,
,,,400.00047555E-12,1.4239999,
,,,500.000483411E-12,1.4319999,
,,,600.000491276E-12,1.4399999,
,,,700.000499140E-12,1.4480000,
,,,800.000507005E-12,1.4559999,
,,,900.000459358E-12,1.4559999,
,,,1.0000005E-9,1.4639999,
,,,1.1000005E-9,1.4719999,
,,,1.2000005E-9,1.4799999,
,,,1.3000004E-9,1.4879999,
,,,1.4000004E-9,1.4959999,
,,,1.5000005E-9,1.5039999,
,,,1.6000005E-9,1.5119998,
,,,1.7000005E-9,1.5279999,
,,,1.8000005E-9,1.5359999,
,,,1.9000006E-9,1.5359999,
,,,2.0000006E-9,1.5439999,
,,,2.1000004E-9,1.5439999,
,,,2.2000004E-9,1.5439999,
,,,2.3000004E-9,1.5519999,
,,,2.4000004E-9,1.5519999,
,,,2.5000004E-9,1.5599999,
,,,2.6000004E-9,1.5599999,
,,,2.7000004E-9,1.5679998,
,,,2.80000045E-9,1.5759999,
,,,2.90000046E-9,1.5759999,
,,,3.00000047E-9,1.5839999,
,,,3.10000048E-9,1.5839999,
,,,3.20000049E-9,1.5839999,
,,,3.30000050E-9,1.5919999,
,,,3.40000050E-9,1.5919999,
,,,3.50000051E-9,1.5919999,
,,,3.60000052E-9,1.5919999,
,,,3.70000053E-9,1.5919999,
,,,3.80000031E-9,1.5999999,
,,,3.90000032E-9,1.5999999,
,,,4.00000033E-9,1.5999999,
,,,4.10000034E-9,1.5999999,
,,,4.20000035E-9,1.5999999,
,,,4.30000036E-9,1.6079999,
,,,4.40000036E-9,1.6079999,
,,,4.50000037E-9,1.6079999,
,,,4.60000038E-9,1.6079999,
,,,4.70000039E-9,1.6079999,
,,,4.80000040E-9,1.6079999,
,,,4.90000041E-9,1.6079999,
,,,5.00000041E-9,1.5999999,
,,,5.10000042E-9,1.5999999,
,,,5.20000043E-9,1.5999999,
,,,5.30000044E-9,1.5999999,
,,,5.40000045E-9,1.5919999,
,,,5.50000046E-9,1.5919999,
,,,5.60000046E-9,1.5839999,
,,,5.70000047E-9,1.5759999,
,,,5.80000048E-9,1.5759999,
,,,5.90000049E-9,1.5679998,
,,,6.00000050E-9,1.5599999,
,,,6.10000050E-9,1.5599999,
,,,6.20000051E-9,1.5519999,
,,,6.30000052E-9,1.5519999,
,,,6.40000053E-9,1.5439999,
,,,6.50000054E-9,1.5359999,
,,,6.60000055E-9,1.5279999,
,,,6.70000055E-9,1.5279999,
,,,6.80000056E-9,1.5199999,
,,,6.90000057E-9,1.5119998,
,,,7.00000058E-9,1.5039999,
,,,7.10000059E-9,1.4959999,
,,,7.20000060E-9,1.4879999,
,,,7.30000060E-9,1.4799999,
,,,7.400000612E-9,1.4719999,
,,,7.500000621E-9,1.4559999,
,,,7.600000629E-9,1.4480000,
,,,7.700000637E-9,1.4399999,
,,,7.800000645E-9,1.4319999,
,,,7.900000654E-9,1.4159999,
,,,8.000000662E-9,1.4079999,
,,,8.100000670E-9,1.3920000,
,,,8.200000678E-9,1.3839999,
,,,8.300000687E-9,1.3759999,
,,,8.400000695E-9,1.3599999,
,,,8.500000703E-9,1.3519999,
,,,8.600000712E-9,1.3439999,
,,,8.700000720E-9,1.3279999,
,,,8.800000728E-9,1.3199999,
,,,8.900000736E-9,1.3039999,
,,,9.000000745E-9,1.2959999,
,,,9.100000753E-9,1.2800000,
,,,9.200000761E-9,1.2639999,
,,,9.300000769E-9,1.2559999,
,,,9.400000778E-9,1.2399999,
,,,9.500000786E-9,1.2239999,
,,,9.600000794E-9,1.2079999,
,,,9.700000803E-9,1.1919999,
,,,9.800000811E-9,1.1759999,
,,,9.900000819E-9,1.1600000,
,,,10.0000008E-9,1.1439999,
,,,10.1000008E-9,1.1279999,
,,,10.2000008E-9,1.1119999,
,,,10.3000009E-9,1.0960000,
,,,10.4000009E-9,1.0799999,
,,,10.5000009E-9,1.0639999,
,,,10.6000009E-9,1.0480000,
,,,10.7000009E-9,1.0319999,
,,,10.8000009E-9,1.0159999,
,,,10.9000009E-9,999.999940395E-3,
,,,11.0000009E-9,983.999907970E-3,
,,,11.1000009E-9,967.999935150E-3,
,,,11.2000009E-9,951.999962330E-3,
,,,11.3000009E-9,935.999929905E-3,
,,,11.4000009E-9,919.999957085E-3,
,,,11.5000010E-9,903.999924660E-3,
,,,11.6000010E-9,887.999951839E-3,
,,,11.7000010E-9,871.999919415E-3,
,,,11.8000010E-9,855.999946594E-3,
,,,11.9000010E-9,839.999914169E-3,
,,,12.0000010E-9,823.999941349E-3,
,,,12.1000010E-9,807.999968529E-3,
,,,12.2000010E-9,791.999936104E-3,
,,,12.3000010E-9,783.999919891E-3,
,,,12.4000010E-9,759.999930859E-3,
,,,12.5000010E-9,743.999958038E-3,
,,,12.6000010E-9,727.999925613E-3,
,,,12.7000011E-9,711.999952793E-3,
,,,12.8000011E-9,695.999979973E-3,
,,,12.9000011E-9,679.999947548E-3,
,,,13.0000011E-9,663.999974728E-3,
,,,13.1000011E-9,647.999942303E-3,
,,,13.2000011E-9,631.999969482E-3,
,,,13.3000002E-9,623.999953270E-3,
,,,13.4000002E-9,607.999980450E-3,
,,,13.5000002E-9,591.999948025E-3,
,,,13.6000002E-9,583.999931812E-3,
,,,13.7000002E-9,567.999958992E-3,
,,,13.8000003E-9,559.999942780E-3,
,,,13.9000003E-9,543.999969959E-3,
,,,14.0000003E-9,527.999937534E-3,
,,,14.1000003E-9,511.999964714E-3,
,,,14.2000003E-9,495.999962091E-3,
,,,14.3000003E-9,487.999975681E-3,
,,,14.4000003E-9,471.999973059E-3,
,,,14.5000003E-9,463.999956846E-3,
,,,14.6000003E-9,447.999954224E-3,
,,,14.7000003E-9,439.999967813E-3,
,,,14.8000003E-9,431.999981403E-3,
,,,14.9000003E-9,415.999978781E-3,
,,,15.0000012E-9,407.999962568E-3,
,,,15.1000012E-9,391.99995995E-3,
,,,15.2000013E-9,383.99997354E-3,
,,,15.3000013E-9,375.99998713E-3,
,,,15.4000013E-9,367.99997091E-3,
,,,15.5000013E-9,359.99998450E-3,
,,,15.6000013E-9,351.99996829E-3,
,,,15.7000013E-9,343.99998188E-3,
,,,15.8000013E-9,335.99996567E-3,
,,,15.9000013E-9,327.99997926E-3,
,,,16.0000013E-9,319.99999285E-3,
,,,16.1000013E-9,311.99997663E-3,
,,,16.2000013E-9,303.99999022E-3,
,,,16.3000013E-9,295.99997401E-3,
,,,16.4000014E-9,287.99998760E-3,
,,,16.5000014E-9,279.99997139E-3,
,,,16.6000014E-9,263.99996877E-3,
,,,16.7000014E-9,263.99996877E-3,
,,,16.8000014E-9,255.99998236E-3,
,,,16.9000014E-9,247.99998105E-3,
,,,17.0000014E-9,239.99997973E-3,
,,,17.1000014E-9,239.99997973E-3,
,,,17.2000014E-9,231.99997842E-3,
,,,17.3000014E-9,231.99997842E-3,
,,,17.4000014E-9,223.99997711E-3,
,,,17.5000014E-9,223.99997711E-3,
,,,17.6000015E-9,215.99999070E-3,
,,,17.7000015E-9,215.99999070E-3,
,,,17.8000015E-9,215.99999070E-3,
,,,17.9000015E-9,207.99998939E-3,
,,,18.0000015E-9,207.99998939E-3,
,,,18.1000015E-9,207.99998939E-3,
,,,18.2000015E-9,207.99998939E-3,
,,,18.3000015E-9,207.99998939E-3,
,,,18.4000015E-9,207.99998939E-3,
,,,18.5000015E-9,207.99998939E-3,
,,,18.6000015E-9,207.99998939E-3,
,,,18.7000015E-9,207.99998939E-3,
,,,18.8000016E-9,215.99999070E-3,
,,,18.9000016E-9,215.99999070E-3,
,,,19.0000016E-9,215.99999070E-3,
,,,19.1000016E-9,215.99999070E-3,
,,,19.2000016E-9,215.99999070E-3,
,,,19.3000016E-9,223.99997711E-3,
,,,19.4000016E-9,223.99997711E-3,
,,,19.5000016E-9,223.99997711E-3,
,,,19.6000016E-9,223.99997711E-3,
,,,19.6999999E-9,223.99997711E-3,
,,,19.7999999E-9,231.99997842E-3,
,,,19.8999999E-9,231.99997842E-3,
,,,19.9999999E-9,239.99997973E-3,
,,,20.09999989E-9,247.99998105E-3,
,,,20.19999989E-9,255.99998236E-3,
,,,20.29999990E-9,263.99996877E-3,
,,,20.39999991E-9,271.99998498E-3,
,,,20.49999992E-9,279.99997139E-3,
,,,20.59999993E-9,287.99998760E-3,
,,,20.69999994E-9,295.99997401E-3,
,,,20.79999994E-9,303.99999022E-3,
,,,20.89999995E-9,303.99999022E-3,
,,,20.99999996E-9,311.99997663E-3,
,,,21.09999997E-9,319.99999285E-3,
,,,21.19999998E-9,327.99997926E-3,
,,,21.29999999E-9,335.99996567E-3,
,,,21.39999999E-9,343.99998188E-3,
,,,21.50000000E-9,351.99996829E-3,
,,,21.60000001E-9,359.99998450E-3,
,,,21.70000002E-9,367.99997091E-3,
,,,21.80000003E-9,383.99997354E-3,
,,,21.90000004E-9,391.99995995E-3,
,,,22.00000004E-9,399.99997616E-3,
,,,22.10000005E-9,407.999962568E-3,
,,,22.20000006E-9,415.999978781E-3,
,,,22.30000007E-9,431.999981403E-3,
,,,22.40000008E-9,439.999967813E-3,
,,,22.50000009E-9,447.999954224E-3,
,,,22.60000009E-9,463.999956846E-3,
,,,22.70000010E-9,471.999973059E-3,
,,,22.80000011E-9,487.999975681E-3,
,,,22.90000012E-9,495.999962091E-3,
,,,23.00000013E-9,503.999948502E-3,
,,,23.10000013E-9,519.999980927E-3,
,,,23.20000014E-9,527.999937534E-3,
,,,23.30000015E-9,543.999969959E-3,
,,,23.40000016E-9,551.999986172E-3,
,,,23.50000017E-9,567.999958992E-3,
,,,23.60000018E-9,575.999975204E-3,
,,,23.70000018E-9,591.999948025E-3,
,,,23.80000019E-9,607.999980450E-3,
,,,23.90000020E-9,615.999937057E-3,
,,,24.00000021E-9,631.999969482E-3,
,,,24.10000022E-9,647.999942303E-3,
,,,24.20000023E-9,663.999974728E-3,
,,,24.30000023E-9,679.999947548E-3,
,,,24.40000024E-9,687.999963760E-3,
,,,24.50000025E-9,703.999936581E-3,
,,,24.60000026E-9,719.999969006E-3,
,,,24.70000027E-9,735.999941826E-3,
,,,24.80000028E-9,751.999974251E-3,
,,,24.90000028E-9,759.999930859E-3,
,,,25.00000029E-9,775.999963284E-3,
,,,25.10000030E-9,783.999919891E-3,
,,,25.20000031E-9,799.999952316E-3,
,,,25.30000032E-9,815.999925137E-3,
,,,25.40000033E-9,823.999941349E-3,
,,,25.50000033E-9,839.999914169E-3,
,,,25.60000034E-9,855.999946594E-3,
,,,25.70000035E-9,871.999919415E-3,
,,,25.80000036E-9,887.999951839E-3,
,,,25.90000037E-9,895.999908447E-3,
,,,26.00000037E-9,911.999940872E-3,
,,,26.10000038E-9,927.999913692E-3,
,,,26.20000039E-9,943.999946117E-3,
,,,26.30000040E-9,959.999918938E-3,
,,,26.40000041E-9,967.999935150E-3,
,,,26.50000042E-9,983.999907970E-3,
,,,26.60000042E-9,999.999940395E-3,
,,,26.70000043E-9,1.0159999,
,,,26.80000044E-9,1.0319999,
,,,26.90000045E-9,1.0400000,
,,,27.00000046E-9,1.0559999,
,,,27.10000047E-9,1.0639999,
,,,27.20000047E-9,1.0799999,
,,,27.30000048E-9,1.0960000,
,,,27.40000049E-9,1.1040000,
,,,27.50000050E-9,1.1199999,
,,,27.60000051E-9,1.1359999,
,,,27.70000052E-9,1.1520000,
,,,27.80000052E-9,1.1679999,
,,,27.90000053E-9,1.1759999,
,,,28.00000054E-9,1.1919999,
,,,28.10000055E-9,1.2079999,
,,,28.20000056E-9,1.2239999,
,,,28.30000057E-9,1.2399999,
,,,28.40000057E-9,1.2559999,
,,,28.50000058E-9,1.2720000,
,,,28.60000059E-9,1.2879999,
,,,28.70000060E-9,1.3039999,
,,,28.80000061E-9,1.3199999,
,,,28.90000061E-9,1.3279999,
,,,29.00000062E-9,1.3439999,
,,,29.10000063E-9,1.3519999,
,,,29.20000064E-9,1.3599999,
,,,29.30000065E-9,1.3759999,
,,,29.40000066E-9,1.3839999,
,,,29.50000066E-9,1.3920000,
,,,29.60000067E-9,1.3999999,
,,,29.70000068E-9,1.4079999,
,,,29.80000069E-9,1.4239999,
,,,29.90000070E-9,1.4319999,
,,,30.00000248E-9,1.4399999,
,,,30.10000071E-9,1.4559999,
,,,30.20000250E-9,1.4639999,
,,,30.30000073E-9,1.4799999,
,,,30.40000252E-9,1.4879999,
,,,30.50000075E-9,1.4959999,
,,,30.60000253E-9,1.5039999,
,,,30.70000076E-9,1.5199999,
,,,30.80000255E-9,1.5279999,
,,,30.90000078E-9,1.5279999,
,,,31.00000256E-9,1.5359999,
,,,31.10000080E-9,1.5439999,
,,,31.20000258E-9,1.5519999,
,,,31.30000081E-9,1.5599999,
,,,31.40000260E-9,1.5679998,
,,,31.50000083E-9,1.5759999,
,,,31.60000261E-9,1.5839999,
,,,31.70000085E-9,1.5919999,
,,,31.80000263E-9,1.5999999,
,,,31.90000086E-9,1.6079999,
,,,32.00000265E-9,1.6079999,
,,,32.10000088E-9,1.6159999,
,,,32.20000266E-9,1.6239998,
,,,32.30000090E-9,1.6319999,
,,,32.40000268E-9,1.6319999,
,,,32.50000091E-9,1.6399999,
,,,32.59999914E-9,1.6479999,
,,,32.70000093E-9,1.6479999,
,,,32.79999916E-9,1.6559999,
,,,32.90000095E-9,1.6559999,
,,,32.99999918E-9,1.6559999,
,,,33.10000096E-9,1.6639999,
,,,33.19999919E-9,1.6639999,
,,,33.30000098E-9,1.6719999,
,,,33.39999921E-9,1.6719999,
,,,33.50000100E-9,1.6799998,
,,,33.59999923E-9,1.6799998,
,,,33.70000101E-9,1.6799998,
,,,33.79999924E-9,1.6879998,
,,,33.90000103E-9,1.6879998,
,,,33.99999926E-9,1.6879998,
,,,34.10000105E-9,1.6879998,
,,,34.19999928E-9,1.6879998,
,,,34.30000106E-9,1.6879998,
,,,34.39999929E-9,1.6879998,
,,,34.50000108E-9,1.6879998,
,,,34.59999931E-9,1.6879998,
,,,34.70000109E-9,1.6879998,
,,,34.79999933E-9,1.6879998,
,,,34.90000111E-9,1.6879998,
,,,34.99999934E-9,1.6799998,
,,,35.10000113E-9,1.6799998,
,,,35.19999936E-9,1.6799998,
,,,35.30000114E-9,1.6799998,
,,,35.39999938E-9,1.6719999,
,,,35.50000116E-9,1.6639999,
,,,35.59999939E-9,1.6639999,
,,,35.70000118E-9,1.6559999,
,,,35.79999941E-9,1.6559999,
,,,35.90000119E-9,1.6479999,
,,,35.99999943E-9,1.6479999,
,,,36.10000121E-9,1.6479999,
,,,36.19999944E-9,1.6479999,
,,,36.30000123E-9,1.6479999,
,,,36.39999946E-9,1.6399999,
,,,36.50000124E-9,1.6399999,
,,,36.59999948E-9,1.6399999,
,,,36.70000126E-9,1.6319999,
,,,36.79999949E-9,1.6319999,
,,,36.90000128E-9,1.6239998,
,,,36.99999951E-9,1.6159999,
,,,37.10000129E-9,1.6079999,
,,,37.19999953E-9,1.6079999,
,,,37.30000131E-9,1.5999999,
,,,37.39999954E-9,1.5919999,
,,,37.50000133E-9,1.5839999,
,,,37.59999956E-9,1.5759999,
,,,37.70000134E-9,1.5679998,
,,,37.79999957E-9,1.5679998,
,,,37.90000136E-9,1.5599999,
,,,37.99999959E-9,1.5519999,
,,,38.10000138E-9,1.5439999,
,,,38.19999961E-9,1.5439999,
,,,38.30000139E-9,1.5359999,
,,,38.39999962E-9,1.5279999,
,,,38.50000141E-9,1.5119998,
,,,38.59999964E-9,1.5039999,
,,,38.70000143E-9,1.4959999,
,,,38.79999966E-9,1.4879999,
,,,38.90000144E-9,1.4719999,
,,,38.99999967E-9,1.4639999,
,,,39.10000146E-9,1.4559999,
,,,39.19999969E-9,1.4480000,
,,,39.30000148E-9,1.4399999,
,,,39.39999971E-9,1.4319999,
,,,39.50000149E-9,1.4239999,
,,,39.59999972E-9,1.4159999,
,,,39.70000151E-9,1.4079999,
,,,39.79999974E-9,1.3999999,
,,,39.90000152E-9,1.3920000,
,,,39.99999976E-9,1.3759999,
,,,40.10000154E-9,1.3679999,
,,,40.19999977E-9,1.3599999,
,,,40.30000156E-9,1.3519999,
,,,40.39999979E-9,1.3360000,
,,,40.50000157E-9,1.3279999,
,,,40.59999981E-9,1.3119999,
,,,40.70000159E-9,1.3039999,
,,,40.79999982E-9,1.2959999,
,,,40.90000161E-9,1.2800000,
,,,40.99999984E-9,1.2720000,
,,,41.10000162E-9,1.2639999,
,,,41.19999986E-9,1.2559999,
,,,41.30000164E-9,1.2479999,
,,,41.39999987E-9,1.2319999,
,,,41.50000166E-9,1.2239999,
,,,41.59999989E-9,1.2160000,
,,,41.70000167E-9,1.2079999,
,,,41.79999991E-9,1.1999999,
,,,41.90000169E-9,1.1839999,
,,,41.99999992E-9,1.1759999,
,,,42.10000171E-9,1.1600000,
,,,42.19999994E-9,1.1520000,
,,,42.30000172E-9,1.1439999,
,,,42.39999996E-9,1.1279999,
,,,42.50000174E-9,1.1199999,
,,,42.59999997E-9,1.1040000,
,,,42.70000176E-9,1.0960000,
,,,42.79999999E-9,1.0879999,
,,,42.90000177E-9,1.0719999,
,,,43.00000001E-9,1.0639999,
,,,43.10000179E-9,1.0480000,
,,,43.20000002E-9,1.0400000,
,,,43.30000181E-9,1.0319999,
,,,43.40000004E-9,1.0159999,
,,,43.50000182E-9,1.0079999,
,,,43.60000005E-9,999.999940395E-3,
,,,43.70000184E-9,991.999924183E-3,
,,,43.80000007E-9,983.999907970E-3,
,,,43.90000186E-9,967.999935150E-3,
,,,44.00000009E-9,959.999918938E-3,
,,,44.10000187E-9,951.999962330E-3,
,,,44.20000010E-9,943.999946117E-3,
,,,44.30000189E-9,935.999929905E-3,
,,,44.40000012E-9,927.999913692E-3,
,,,44.50000191E-9,919.999957085E-3,
,,,44.60000014E-9,911.999940872E-3,
,,,44.70000192E-9,903.999924660E-3,
,,,44.80000015E-9,895.999908447E-3,
,,,44.90000194E-9,879.999935627E-3,
,,,45.00000017E-9,871.999919415E-3,
,,,45.10000196E-9,863.999962807E-3,
,,,45.20000019E-9,855.999946594E-3,
,,,45.30000197E-9,847.999930382E-3,
,,,45.40000020E-9,839.999914169E-3,
,,,45.50000199E-9,831.999957561E-3,
,,,45.60000022E-9,823.999941349E-3,
,,,45.70000200E-9,815.999925137E-3,
,,,45.80000024E-9,807.999968529E-3,
,,,45.90000202E-9,799.999952316E-3,
,,,46.00000025E-9,791.999936104E-3,
,,,46.10000204E-9,783.999919891E-3,
,,,46.20000027E-9,775.999963284E-3,
,,,46.30000205E-9,775.999963284E-3,
,,,46.40000029E-9,767.999947071E-3,
,,,46.50000207E-9,759.999930859E-3,
,,,46.60000030E-9,751.999974251E-3,
,,,46.70000209E-9,743.999958038E-3,
,,,46.80000032E-9,735.999941826E-3,
,,,46.90000210E-9,727.999925613E-3,
,,,47.00000034E-9,719.999969006E-3,
,,,47.10000212E-9,711.999952793E-3,
,,,47.20000035E-9,703.999936581E-3,
,,,47.30000214E-9,703.999936581E-3,
,,,47.40000037E-9,695.999979973E-3,
,,,47.50000215E-9,687.999963760E-3,
,,,47.60000039E-9,687.999963760E-3,
,,,47.70000217E-9,679.999947548E-3,
,,,47.80000040E-9,679.999947548E-3,
,,,47.90000219E-9,671.999931335E-3,
,,,48.00000042E-9,663.999974728E-3,
,,,48.10000220E-9,663.999974728E-3,
,,,48.20000044E-9,655.999958515E-3,
,,,48.30000222E-9,655.999958515E-3,
,,,48.40000045E-9,647.999942303E-3,
,,,48.50000224E-9,647.999942303E-3,
,,,48.60000047E-9,639.999985695E-3,
,,,48.70000225E-9,639.999985695E-3,
,,,48.80000049E-9,639.999985695E-3,
,,,48.90000227E-9,631.999969482E-3,
,,,49.00000050E-9,631.999969482E-3,
,,,49.10000229E-9,623.999953270E-3,
,,,49.20000052E-9,623.999953270E-3,
,,,49.30000230E-9,623.999953270E-3,
,,,49.40000053E-9,615.999937057E-3,
,,,49.50000232E-9,615.999937057E-3,
,,,49.60000055E-9,615.999937057E-3,
,,,49.70000234E-9,615.999937057E-3,
,,,49.80000057E-9,615.999937057E-3,
,,,49.90000235E-9,607.999980450E-3,
,,,50.00000058E-9,607.999980450E-3,
,,,50.10000237E-9,599.999964237E-3,
,,,50.20000060E-9,599.999964237E-3,
,,,50.30000239E-9,599.999964237E-3,
,,,50.40000062E-9,591.999948025E-3,
,,,50.50000240E-9,591.999948025E-3,
,,,50.60000063E-9,591.999948025E-3,
,,,50.70000242E-9,591.999948025E-3,
,,,50.80000065E-9,591.999948025E-3,
,,,50.90000244E-9,591.999948025E-3,
,,,51.00000067E-9,591.999948025E-3,
,,,51.10000245E-9,591.999948025E-3,
,,,51.20000068E-9,591.999948025E-3,
,,,51.30000247E-9,599.999964237E-3,
,,,51.40000070E-9,599.999964237E-3,
,,,51.50000248E-9,599.999964237E-3,
,,,51.60000072E-9,599.999964237E-3,
,,,51.70000250E-9,599.999964237E-3,
,,,51.80000073E-9,599.999964237E-3,
,,,51.90000252E-9,599.999964237E-3,
,,,52.00000075E-9,599.999964237E-3,
,,,52.10000253E-9,599.999964237E-3,
,,,52.20000077E-9,599.999964237E-3,
,,,52.30000255E-9,599.999964237E-3,
,,,52.40000078E-9,599.999964237E-3,
,,,52.50000257E-9,599.999964237E-3,
,,,52.60000080E-9,599.999964237E-3,
,,,52.70000258E-9,599.999964237E-3,
,,,52.80000082E-9,607.999980450E-3,
,,,52.90000260E-9,607.999980450E-3,
,,,53.00000083E-9,607.999980450E-3,
,,,53.10000262E-9,615.999937057E-3,
,,,53.20000085E-9,615.999937057E-3,
,,,53.30000263E-9,623.999953270E-3,
,,,53.40000087E-9,623.999953270E-3,
,,,53.50000265E-9,623.999953270E-3,
,,,53.60000088E-9,623.999953270E-3,
,,,53.70000267E-9,623.999953270E-3,
,,,53.80000090E-9,631.999969482E-3,
,,,53.90000268E-9,631.999969482E-3,
,,,54.00000092E-9,631.999969482E-3,
,,,54.10000270E-9,631.999969482E-3,
,,,54.20000093E-9,631.999969482E-3,
,,,54.30000272E-9,639.999985695E-3,
,,,54.40000095E-9,639.999985695E-3,
,,,54.50000273E-9,639.999985695E-3,
,,,54.600000965E-9,639.999985695E-3,
,,,54.700002750E-9,639.999985695E-3,
,,,54.800000981E-9,647.999942303E-3,
,,,54.900002766E-9,647.999942303E-3,
,,,55.000000998E-9,655.999958515E-3,
,,,55.100002783E-9,655.999958515E-3,
,,,55.200001015E-9,663.999974728E-3,
,,,55.300002799E-9,671.999931335E-3,
,,,55.400001031E-9,671.999931335E-3,
,,,55.500002816E-9,671.999931335E-3,
