Versuch5/4000OriFrequenz.csv

Record Length,2500,Points,-1.2500001E-3,1.5999999,
Sample Interval,1.000000E-6,s,-1.2490001E-3,1.6799999,
Trigger Point,1.2500002E3,Samples,-1.2480001E-3,1.7600000,
,,,-1.2470001E-3,1.7600000,
,,,-1.2460001E-3,1.9200000,
,,,-1.2450001E-3,2.0000000,
Source,CH1,,-1.2440000E-3,2.0799999,
Vertical Units,Volts,,-1.2430000E-3,2.0799999,
Vertical Scale,2.0478125,,-1.2420001E-3,2.1599998,
Vertical Offset,0,,-1.2410001E-3,2.3199999,
Horizontal Units,s,,-1.2400001E-3,2.3199999,
Horizontal Scale,249.99999937E-6,,-1.2390001E-3,2.3999999,
Pt Fmt,Y,,-1.2380001E-3,2.4800000,
Yzero,0.0,,-1.2370001E-3,2.4800000,
Probe Atten,1.000000,,-1.2360001E-3,2.6399999,
,,,-1.2350001E-3,2.6399999,
Note,TDS 2022B - 16:50:36   07.01.2019,,-1.2340001E-3,2.6399999,
,,,-1.2330001E-3,2.72000003,
,,,-1.2320001E-3,2.72000003,
,,,-1.2310001E-3,2.87999988,
,,,-1.2300001E-3,2.96000004,
,,,-1.2290000E-3,3.03999996,
,,,-1.2280000E-3,3.03999996,
,,,-1.2270001E-3,3.03999996,
,,,-1.2260001E-3,3.11999989,
,,,-1.2250001E-3,3.19999981,
,,,-1.2240001E-3,3.19999981,
,,,-1.2230001E-3,3.19999981,
,,,-1.2220001E-3,3.35999990,
,,,-1.2210001E-3,3.35999990,
,,,-1.2200001E-3,3.43999982,
,,,-1.2190001E-3,3.43999982,
,,,-1.2180001E-3,3.43999982,
,,,-1.2170001E-3,3.59999990,
,,,-1.2160001E-3,3.51999998,
,,,-1.2150001E-3,3.67999983,
,,,-1.2140000E-3,3.59999990,
,,,-1.2130000E-3,3.67999983,
,,,-1.2120000E-3,3.67999983,
,,,-1.2110001E-3,3.75999999,
,,,-1.2100001E-3,3.75999999,
,,,-1.2090001E-3,3.83999991,
,,,-1.2080001E-3,3.75999999,
,,,-1.2070001E-3,3.83999991,
,,,-1.2060001E-3,3.83999991,
,,,-1.2050001E-3,3.83999991,
,,,-1.2040001E-3,3.83999991,
,,,-1.2030001E-3,3.91999984,
,,,-1.2020001E-3,3.91999984,
,,,-1.2010001E-3,3.91999984,
,,,-1.2000001E-3,3.91999984,
,,,-1.1990000E-3,3.91999984,
,,,-1.1980000E-3,3.91999984,
,,,-1.1970000E-3,4.00000000,
,,,-1.1960001E-3,4.00000000,
,,,-1.1950001E-3,3.83999991,
,,,-1.1940001E-3,3.91999984,
,,,-1.1930001E-3,3.91999984,
,,,-1.1920001E-3,3.83999991,
,,,-1.1910001E-3,3.91999984,
,,,-1.1900001E-3,3.83999991,
,,,-1.1890001E-3,3.83999991,
,,,-1.1880001E-3,3.83999991,
,,,-1.1870001E-3,3.83999991,
,,,-1.1860001E-3,3.83999991,
,,,-1.1850001E-3,3.83999991,
,,,-1.1840001E-3,3.75999999,
,,,-1.1830000E-3,3.75999999,
,,,-1.1820000E-3,3.67999983,
,,,-1.1810001E-3,3.75999999,
,,,-1.1800001E-3,3.67999983,
,,,-1.1790001E-3,3.59999990,
,,,-1.1780001E-3,3.59999990,
,,,-1.1770001E-3,3.59999990,
,,,-1.1760001E-3,3.51999998,
,,,-1.1750001E-3,3.43999982,
,,,-1.1740001E-3,3.43999982,
,,,-1.1730001E-3,3.35999990,
,,,-1.1720001E-3,3.35999990,
,,,-1.1710001E-3,3.27999997,
,,,-1.1700001E-3,3.27999997,
,,,-1.1690001E-3,3.19999981,
,,,-1.1680000E-3,3.19999981,
,,,-1.1670000E-3,3.03999996,
,,,-1.1660000E-3,3.03999996,
,,,-1.1650001E-3,2.96000004,
,,,-1.1640001E-3,2.96000004,
,,,-1.1630001E-3,2.96000004,
,,,-1.1620001E-3,2.79999995,
,,,-1.1610001E-3,2.72000003,
,,,-1.1600001E-3,2.72000003,
,,,-1.1590001E-3,2.6399999,
,,,-1.1580001E-3,2.5599999,
,,,-1.1570001E-3,2.5599999,
,,,-1.1560001E-3,2.3999999,
,,,-1.1550001E-3,2.3999999,
,,,-1.1540001E-3,2.3199999,
,,,-1.1530000E-3,2.2400000,
,,,-1.1520000E-3,2.1599998,
,,,-1.1510000E-3,2.1599998,
,,,-1.1500001E-3,2.0799999,
,,,-1.1490001E-3,2.0000000,
,,,-1.1480001E-3,1.9200000,
,,,-1.1470001E-3,1.8399999,
,,,-1.1460001E-3,1.7600000,
,,,-1.1450001E-3,1.6799999,
,,,-1.1440001E-3,1.5999999,
,,,-1.1430001E-3,1.5999999,
,,,-1.1420001E-3,1.5200000,
,,,-1.1410001E-3,1.3600000,
,,,-1.1400001E-3,1.3600000,
,,,-1.1390001E-3,1.2800000,
,,,-1.1380001E-3,1.1999999,
,,,-1.1370000E-3,1.1200000,
,,,-1.1360000E-3,959.999978542E-3,
,,,-1.1350001E-3,959.999978542E-3,
,,,-1.1340001E-3,879.999995232E-3,
,,,-1.1330001E-3,799.999952316E-3,
,,,-1.1320001E-3,719.999969006E-3,
,,,-1.1310001E-3,639.999985695E-3,
,,,-1.1300001E-3,560.000002384E-3,
,,,-1.1290001E-3,479.999989271E-3,
,,,-1.1280001E-3,399.99997616E-3,
,,,-1.1270001E-3,319.99999285E-3,
,,,-1.1260001E-3,239.99999464E-3,
,,,-1.1250001E-3,159.99999642E-3,
,,,-1.1240001E-3,159.99999642E-3,
,,,-1.1230001E-3,79.999998212E-3,
,,,-1.1220000E-3,0.0,
,,,-1.1210000E-3,-79.999998212E-3,
,,,-1.1200001E-3,-159.99999642E-3,
,,,-1.1190001E-3,-239.99999464E-3,
,,,-1.1180001E-3,-239.99999464E-3,
,,,-1.1170001E-3,-399.99997616E-3,
,,,-1.1160001E-3,-479.999989271E-3,
,,,-1.1150001E-3,-560.000002384E-3,
,,,-1.1140001E-3,-639.999985695E-3,
,,,-1.1130001E-3,-639.999985695E-3,
,,,-1.1120001E-3,-719.999969006E-3,
,,,-1.1110001E-3,-799.999952316E-3,
,,,-1.1100001E-3,-879.999995232E-3,
,,,-1.1090001E-3,-879.999995232E-3,
,,,-1.1080001E-3,-959.999978542E-3,
,,,-1.1070000E-3,-1.0400000,
,,,-1.1060000E-3,-1.1200000,
,,,-1.1050000E-3,-1.1200000,
,,,-1.1040001E-3,-1.1999999,
,,,-1.1030001E-3,-1.2800000,
,,,-1.1020001E-3,-1.2800000,
,,,-1.1010001E-3,-1.3600000,
,,,-1.1000001E-3,-1.4399999,
,,,-1.0990001E-3,-1.4399999,
,,,-1.0980001E-3,-1.5200000,
,,,-1.0970001E-3,-1.5200000,
,,,-1.0960001E-3,-1.5999999,
,,,-1.0950001E-3,-1.6799999,
,,,-1.0940001E-3,-1.7600000,
,,,-1.0930001E-3,-1.7600000,
,,,-1.0920000E-3,-1.7600000,
,,,-1.0910000E-3,-1.7600000,
,,,-1.0900000E-3,-1.8399999,
,,,-1.0890001E-3,-1.9200000,
,,,-1.0880001E-3,-1.9200000,
,,,-1.0870001E-3,-1.9200000,
,,,-1.0860001E-3,-1.9200000,
,,,-1.0850001E-3,-2.0000000,
,,,-1.0840001E-3,-2.0000000,
,,,-1.0830001E-3,-2.0000000,
,,,-1.0820001E-3,-2.0799999,
,,,-1.0810001E-3,-2.0799999,
,,,-1.0800001E-3,-2.0799999,
,,,-1.0790001E-3,-2.0799999,
,,,-1.0780001E-3,-2.1599998,
,,,-1.0770001E-3,-2.1599998,
,,,-1.0760000E-3,-2.1599998,
,,,-1.0750000E-3,-2.1599998,
,,,-1.0740001E-3,-2.2400000,
,,,-1.0730001E-3,-2.2400000,
,,,-1.0720001E-3,-2.2400000,
,,,-1.0710001E-3,-2.2400000,
,,,-1.0700001E-3,-2.1599998,
,,,-1.0690001E-3,-2.1599998,
,,,-1.0680001E-3,-2.1599998,
,,,-1.0670001E-3,-2.1599998,
,,,-1.0660001E-3,-2.0799999,
,,,-1.0650001E-3,-2.1599998,
,,,-1.0640001E-3,-2.1599998,
,,,-1.0630001E-3,-2.1599998,
,,,-1.0620001E-3,-2.0799999,
,,,-1.0610000E-3,-2.0799999,
,,,-1.0600000E-3,-2.0000000,
,,,-1.0590000E-3,-2.0000000,
,,,-1.0580001E-3,-2.0000000,
,,,-1.0570001E-3,-1.9200000,
,,,-1.0560001E-3,-1.9200000,
,,,-1.0550001E-3,-1.9200000,
,,,-1.0540001E-3,-1.9200000,
,,,-1.0530001E-3,-1.8399999,
,,,-1.0520001E-3,-1.7600000,
,,,-1.0510001E-3,-1.7600000,
,,,-1.0500001E-3,-1.7600000,
,,,-1.0490001E-3,-1.6799999,
,,,-1.0480001E-3,-1.6799999,
,,,-1.0470001E-3,-1.5999999,
,,,-1.0460000E-3,-1.5200000,
,,,-1.0450000E-3,-1.5200000,
,,,-1.0440000E-3,-1.5200000,
,,,-1.0430001E-3,-1.4399999,
,,,-1.0420001E-3,-1.2800000,
,,,-1.0410001E-3,-1.2800000,
,,,-1.0400001E-3,-1.2800000,
,,,-1.0390001E-3,-1.1999999,
,,,-1.0380001E-3,-1.1200000,
,,,-1.0370001E-3,-1.1200000,
,,,-1.0360001E-3,-1.0400000,
,,,-1.0350001E-3,-959.999978542E-3,
,,,-1.0340001E-3,-879.999995232E-3,
,,,-1.0330001E-3,-879.999995232E-3,
,,,-1.0320001E-3,-799.999952316E-3,
,,,-1.0310001E-3,-719.999969006E-3,
,,,-1.0300000E-3,-639.999985695E-3,
,,,-1.0290000E-3,-560.000002384E-3,
,,,-1.0280001E-3,-479.999989271E-3,
,,,-1.0270001E-3,-399.99997616E-3,
,,,-1.0260001E-3,-399.99997616E-3,
,,,-1.0250001E-3,-319.99999285E-3,
,,,-1.0240001E-3,-159.99999642E-3,
,,,-1.0230001E-3,-159.99999642E-3,
,,,-1.0220001E-3,-79.999998212E-3,
,,,-1.0210001E-3,0.0,
,,,-1.0200001E-3,79.999998212E-3,
,,,-1.0190001E-3,79.999998212E-3,
,,,-1.0180001E-3,159.99999642E-3,
,,,-1.0170001E-3,319.99999285E-3,
,,,-1.0160001E-3,319.99999285E-3,
,,,-1.0150000E-3,479.999989271E-3,
,,,-1.0140000E-3,560.000002384E-3,
,,,-1.0130001E-3,560.000002384E-3,
,,,-1.0120001E-3,639.999985695E-3,
,,,-1.0110001E-3,719.999969006E-3,
,,,-1.0100001E-3,879.999995232E-3,
,,,-1.0090001E-3,879.999995232E-3,
,,,-1.0080001E-3,959.999978542E-3,
,,,-1.0070001E-3,1.0400000,
,,,-1.0060001E-3,1.1200000,
,,,-1.0050001E-3,1.1999999,
,,,-1.0040001E-3,1.2800000,
,,,-1.0030001E-3,1.3600000,
,,,-1.0020001E-3,1.4399999,
,,,-1.0010001E-3,1.5200000,
,,,-1.0000000E-3,1.5999999,
,,,-999.000039883E-6,1.5999999,
,,,-998.000032268E-6,1.6799999,
,,,-997.000141069E-6,1.7600000,
,,,-996.000133455E-6,1.8399999,
,,,-995.000125840E-6,1.9200000,
,,,-994.000118226E-6,2.0000000,
,,,-993.000110611E-6,2.0799999,
,,,-992.000102997E-6,2.1599998,
,,,-991.000095382E-6,2.2400000,
,,,-990.000087768E-6,2.3199999,
,,,-989.000080153E-6,2.3199999,
,,,-988.000072539E-6,2.3999999,
,,,-987.000064924E-6,2.4800000,
,,,-986.000057310E-6,2.5599999,
,,,-985.000049695E-6,2.6399999,
,,,-984.000042081E-6,2.6399999,
,,,-983.000034466E-6,2.72000003,
,,,-982.000143267E-6,2.72000003,
,,,-981.000135653E-6,2.79999995,
,,,-980.000128038E-6,2.87999988,
,,,-979.000120424E-6,2.96000004,
,,,-978.000112809E-6,3.03999996,
,,,-977.000105195E-6,3.03999996,
,,,-976.000097580E-6,3.11999989,
,,,-975.000089966E-6,3.11999989,
,,,-974.000082351E-6,3.19999981,
,,,-973.000074737E-6,3.19999981,
,,,-972.000067122E-6,3.35999990,
,,,-971.000117715E-6,3.35999990,
,,,-970.000110101E-6,3.43999982,
,,,-969.000102486E-6,3.43999982,
,,,-968.000094872E-6,3.43999982,
,,,-967.000087257E-6,3.59999990,
,,,-966.000079643E-6,3.51999998,
,,,-965.000072028E-6,3.59999990,
,,,-964.000064414E-6,3.59999990,
,,,-963.000115007E-6,3.67999983,
,,,-962.000107393E-6,3.67999983,
,,,-961.000099778E-6,3.67999983,
,,,-960.000092164E-6,3.75999999,
,,,-959.000084549E-6,3.75999999,
,,,-958.000076935E-6,3.75999999,
,,,-957.000069320E-6,3.83999991,
,,,-956.000061706E-6,3.83999991,
,,,-955.000112299E-6,3.83999991,
,,,-954.000104684E-6,3.83999991,
,,,-953.000097070E-6,3.83999991,
,,,-952.000089455E-6,3.83999991,
,,,-951.000081841E-6,3.83999991,
,,,-950.000074226E-6,3.91999984,
,,,-949.000066612E-6,3.91999984,
,,,-948.000117205E-6,3.91999984,
,,,-947.000109591E-6,4.00000000,
,,,-946.000101976E-6,4.00000000,
,,,-945.000094362E-6,3.91999984,
,,,-944.000086747E-6,3.91999984,
,,,-943.000079133E-6,3.91999984,
,,,-942.000071518E-6,3.91999984,
,,,-941.000063904E-6,3.83999991,
,,,-940.000114497E-6,3.83999991,
,,,-939.000106882E-6,3.83999991,
,,,-938.000099268E-6,3.83999991,
,,,-937.000091653E-6,3.83999991,
,,,-936.000084039E-6,3.83999991,
,,,-935.000076424E-6,3.75999999,
,,,-934.000068810E-6,3.75999999,
,,,-933.000061195E-6,3.67999983,
,,,-932.000111789E-6,3.75999999,
,,,-931.000104174E-6,3.67999983,
,,,-930.000096560E-6,3.67999983,
,,,-929.000088945E-6,3.67999983,
,,,-928.000081331E-6,3.59999990,
,,,-927.000073716E-6,3.59999990,
,,,-926.000066102E-6,3.51999998,
,,,-925.000116695E-6,3.51999998,
,,,-924.000109080E-6,3.43999982,
,,,-923.000101466E-6,3.35999990,
,,,-922.000093851E-6,3.43999982,
,,,-921.000086237E-6,3.35999990,
,,,-920.000078622E-6,3.27999997,
,,,-919.000071008E-6,3.19999981,
,,,-918.000063393E-6,3.19999981,
,,,-917.000113986E-6,3.11999989,
,,,-916.000106372E-6,3.03999996,
,,,-915.000098757E-6,2.96000004,
,,,-914.000091143E-6,2.96000004,
,,,-913.000083528E-6,2.96000004,
,,,-912.000075914E-6,2.87999988,
,,,-911.000068299E-6,2.79999995,
,,,-910.000060685E-6,2.72000003,
,,,-909.000111278E-6,2.72000003,
,,,-908.000103664E-6,2.6399999,
,,,-907.000096049E-6,2.5599999,
,,,-906.000088435E-6,2.4800000,
,,,-905.000080820E-6,2.4800000,
,,,-904.000073206E-6,2.3999999,
,,,-903.000065591E-6,2.3199999,
,,,-902.000116184E-6,2.2400000,
,,,-901.000108570E-6,2.2400000,
,,,-900.000100955E-6,2.0799999,
,,,-899.000093341E-6,2.0799999,
,,,-898.000085726E-6,1.9200000,
,,,-897.000078112E-6,1.9200000,
,,,-896.000070497E-6,1.8399999,
,,,-895.000062883E-6,1.7600000,
,,,-894.000113476E-6,1.6799999,
,,,-893.000105862E-6,1.5999999,
,,,-892.000098247E-6,1.5999999,
,,,-891.000090633E-6,1.4399999,
,,,-890.000083018E-6,1.4399999,
,,,-889.000075404E-6,1.2800000,
,,,-888.000067789E-6,1.1999999,
,,,-887.000118382E-6,1.1200000,
,,,-886.000110768E-6,1.1200000,
,,,-885.000103153E-6,959.999978542E-3,
,,,-884.000095539E-6,959.999978542E-3,
,,,-883.000087924E-6,799.999952316E-3,
,,,-882.000080310E-6,719.999969006E-3,
,,,-881.000072695E-6,719.999969006E-3,
,,,-880.000065081E-6,639.999985695E-3,
,,,-879.000115674E-6,560.000002384E-3,
,,,-878.000108059E-6,479.999989271E-3,
,,,-877.000100445E-6,399.99997616E-3,
,,,-876.000092831E-6,319.99999285E-3,
,,,-875.000085216E-6,239.99999464E-3,
,,,-874.000077602E-6,159.99999642E-3,
,,,-873.000069987E-6,79.999998212E-3,
,,,-872.000062373E-6,0.0,
,,,-871.000112966E-6,0.0,
,,,-870.000105351E-6,-159.99999642E-3,
,,,-869.000097737E-6,-159.99999642E-3,
,,,-868.000090122E-6,-239.99999464E-3,
,,,-867.000082508E-6,-399.99997616E-3,
,,,-866.000074893E-6,-399.99997616E-3,
,,,-865.000067279E-6,-399.99997616E-3,
,,,-864.000117872E-6,-560.000002384E-3,
,,,-863.000110257E-6,-639.999985695E-3,
,,,-862.000102643E-6,-639.999985695E-3,
,,,-861.000095028E-6,-799.999952316E-3,
,,,-860.000087414E-6,-799.999952316E-3,
,,,-859.000079799E-6,-879.999995232E-3,
,,,-858.000072185E-6,-879.999995232E-3,
,,,-857.000064570E-6,-1.0400000,
,,,-856.000115164E-6,-1.1200000,
,,,-855.000107549E-6,-1.1200000,
,,,-854.000099935E-6,-1.1200000,
,,,-853.000092320E-6,-1.1999999,
,,,-852.000084706E-6,-1.2800000,
,,,-851.000077091E-6,-1.2800000,
,,,-850.000069477E-6,-1.3600000,
,,,-849.000061862E-6,-1.4399999,
,,,-848.000112455E-6,-1.5200000,
,,,-847.000104841E-6,-1.5999999,
,,,-846.000097226E-6,-1.5200000,
,,,-845.000089612E-6,-1.5999999,
,,,-844.000081997E-6,-1.6799999,
,,,-843.000074383E-6,-1.7600000,
,,,-842.000066768E-6,-1.7600000,
,,,-841.000117362E-6,-1.7600000,
,,,-840.000109747E-6,-1.7600000,
,,,-839.000102133E-6,-1.8399999,
,,,-838.000094518E-6,-1.9200000,
,,,-837.000086904E-6,-1.9200000,
,,,-836.000079289E-6,-1.9200000,
,,,-835.000071675E-6,-2.0000000,
,,,-834.000064060E-6,-2.0000000,
,,,-833.000114653E-6,-2.0000000,
,,,-832.000107039E-6,-2.0000000,
,,,-831.000099424E-6,-2.0799999,
,,,-830.000091810E-6,-2.0799999,
,,,-829.000084195E-6,-2.1599998,
,,,-828.000076581E-6,-2.0799999,
,,,-827.000068966E-6,-2.1599998,
,,,-826.000061352E-6,-2.1599998,
,,,-825.000111945E-6,-2.2400000,
,,,-824.000104330E-6,-2.1599998,
,,,-823.000096716E-6,-2.1599998,
,,,-822.000089101E-6,-2.1599998,
,,,-821.000081487E-6,-2.2400000,
,,,-820.000073873E-6,-2.2400000,
,,,-819.000066258E-6,-2.1599998,
,,,-818.000116851E-6,-2.1599998,
,,,-817.000109237E-6,-2.1599998,
,,,-816.000101622E-6,-2.1599998,
,,,-815.000094008E-6,-2.1599998,
,,,-814.000086393E-6,-2.0799999,
,,,-813.000078779E-6,-2.0799999,
,,,-812.000071164E-6,-2.0799999,
,,,-811.000063550E-6,-2.0799999,
,,,-810.000114143E-6,-2.0000000,
,,,-809.000106528E-6,-2.0000000,
,,,-808.000098914E-6,-1.9200000,
,,,-807.000091299E-6,-1.9200000,
,,,-806.000083685E-6,-2.0000000,
,,,-805.000076070E-6,-1.9200000,
,,,-804.000068456E-6,-1.9200000,
,,,-803.000060841E-6,-1.8399999,
,,,-802.000111435E-6,-1.7600000,
,,,-801.000103820E-6,-1.8399999,
,,,-800.000096206E-6,-1.7600000,
,,,-799.000088591E-6,-1.7600000,
,,,-798.000080977E-6,-1.7600000,
,,,-797.000073362E-6,-1.6799999,
,,,-796.000065748E-6,-1.5999999,
,,,-795.000116341E-6,-1.5200000,
,,,-794.000108726E-6,-1.5200000,
,,,-793.000101112E-6,-1.4399999,
,,,-792.000093497E-6,-1.3600000,
,,,-791.000085883E-6,-1.3600000,
,,,-790.000078268E-6,-1.2800000,
,,,-789.000070654E-6,-1.2800000,
,,,-788.000063039E-6,-1.1999999,
,,,-787.000113633E-6,-1.1200000,
,,,-786.000106018E-6,-1.1200000,
,,,-785.000098404E-6,-959.999978542E-3,
,,,-784.000090789E-6,-959.999978542E-3,
,,,-783.000083175E-6,-879.999995232E-3,
,,,-782.000075560E-6,-879.999995232E-3,
,,,-781.000067946E-6,-799.999952316E-3,
,,,-780.000118539E-6,-639.999985695E-3,
,,,-779.000110924E-6,-639.999985695E-3,
,,,-778.000103310E-6,-560.000002384E-3,
,,,-777.000095695E-6,-479.999989271E-3,
,,,-776.000088081E-6,-399.99997616E-3,
,,,-775.000080466E-6,-399.99997616E-3,
,,,-774.000072852E-6,-239.99999464E-3,
,,,-773.000065237E-6,-159.99999642E-3,
,,,-772.000115830E-6,-159.99999642E-3,
,,,-771.000108216E-6,-79.999998212E-3,
,,,-770.000100601E-6,0.0,
,,,-769.000092987E-6,79.999998212E-3,
,,,-768.000085372E-6,159.99999642E-3,
,,,-767.000077758E-6,239.99999464E-3,
,,,-766.000070143E-6,319.99999285E-3,
,,,-765.000062529E-6,399.99997616E-3,
,,,-764.000113122E-6,479.999989271E-3,
,,,-763.000105508E-6,479.999989271E-3,
,,,-762.000097893E-6,639.999985695E-3,
,,,-761.000090279E-6,719.999969006E-3,
,,,-760.000082664E-6,719.999969006E-3,
,,,-759.000075050E-6,879.999995232E-3,
,,,-758.000067435E-6,879.999995232E-3,
,,,-757.000118028E-6,959.999978542E-3,
,,,-756.000110414E-6,1.0400000,
,,,-755.000102799E-6,1.1999999,
,,,-754.000095185E-6,1.2800000,
,,,-753.000087570E-6,1.3600000,
,,,-752.000079956E-6,1.3600000,
,,,-751.000072341E-6,1.4399999,
,,,-750.000064727E-6,1.5200000,
,,,-749.000115320E-6,1.5999999,
,,,-748.000107706E-6,1.6799999,
,,,-747.000100091E-6,1.7600000,
,,,-746.000092477E-6,1.8399999,
,,,-745.000084862E-6,1.8399999,
,,,-744.000077248E-6,1.9200000,
,,,-743.000069633E-6,2.0000000,
,,,-742.000062019E-6,2.0799999,
,,,-741.000112612E-6,2.1599998,
,,,-740.000104997E-6,2.2400000,
,,,-739.000097383E-6,2.3199999,
,,,-738.000089768E-6,2.3999999,
,,,-737.000082154E-6,2.4800000,
,,,-736.000074539E-6,2.4800000,
,,,-735.000066925E-6,2.5599999,
,,,-734.000117518E-6,2.6399999,
,,,-733.000109904E-6,2.6399999,
,,,-732.000102289E-6,2.72000003,
,,,-731.000094675E-6,2.79999995,
,,,-730.000087060E-6,2.87999988,
,,,-729.000079446E-6,2.96000004,
,,,-728.000071831E-6,2.96000004,
,,,-727.000064217E-6,3.03999996,
,,,-726.000114810E-6,3.03999996,
,,,-725.000107195E-6,3.11999989,
,,,-724.000099581E-6,3.19999981,
,,,-723.000091966E-6,3.19999981,
,,,-722.000084352E-6,3.19999981,
,,,-721.000076737E-6,3.27999997,
,,,-720.000069123E-6,3.35999990,
,,,-719.000061508E-6,3.35999990,
,,,-718.000112101E-6,3.43999982,
,,,-717.000104487E-6,3.51999998,
,,,-716.000096872E-6,3.51999998,
,,,-715.000089258E-6,3.59999990,
,,,-714.000081643E-6,3.59999990,
,,,-713.000074029E-6,3.67999983,
,,,-712.000066414E-6,3.59999990,
,,,-711.000117008E-6,3.75999999,
,,,-710.000109393E-6,3.75999999,
,,,-709.000101779E-6,3.75999999,
,,,-708.000094164E-6,3.75999999,
,,,-707.000086550E-6,3.83999991,
,,,-706.000078935E-6,3.83999991,
,,,-705.000071321E-6,3.75999999,
,,,-704.000063706E-6,3.83999991,
,,,-703.000114299E-6,3.83999991,
,,,-702.000106685E-6,3.83999991,
,,,-701.000099070E-6,3.91999984,
,,,-700.000091456E-6,3.91999984,
,,,-699.000083841E-6,3.91999984,
,,,-698.000076227E-6,3.91999984,
,,,-697.000068612E-6,3.91999984,
,,,-696.000060998E-6,4.00000000,
,,,-695.000111591E-6,3.91999984,
,,,-694.000103977E-6,3.91999984,
,,,-693.000096362E-6,3.83999991,
,,,-692.000088748E-6,3.91999984,
,,,-691.000081133E-6,3.91999984,
,,,-690.000073519E-6,3.83999991,
,,,-689.000065904E-6,3.83999991,
,,,-688.000116497E-6,3.83999991,
,,,-687.000108883E-6,3.83999991,
,,,-686.000101268E-6,3.83999991,
,,,-685.000093654E-6,3.83999991,
,,,-684.000086039E-6,3.75999999,
,,,-683.000078425E-6,3.75999999,
,,,-682.000070810E-6,3.75999999,
,,,-681.000063196E-6,3.67999983,
,,,-680.000113789E-6,3.67999983,
,,,-679.000106174E-6,3.67999983,
,,,-678.000098560E-6,3.67999983,
,,,-677.000090946E-6,3.59999990,
,,,-676.000083331E-6,3.51999998,
,,,-675.000075717E-6,3.51999998,
,,,-674.000068102E-6,3.51999998,
,,,-673.000118695E-6,3.43999982,
,,,-672.000111081E-6,3.35999990,
,,,-671.000103466E-6,3.35999990,
,,,-670.000095852E-6,3.35999990,
,,,-669.000088237E-6,3.27999997,
,,,-668.000080623E-6,3.27999997,
,,,-667.000073008E-6,3.19999981,
,,,-666.000065394E-6,3.03999996,
,,,-665.000115987E-6,3.03999996,
,,,-664.000108372E-6,3.03999996,
,,,-663.000100758E-6,2.96000004,
,,,-662.000093143E-6,2.87999988,
,,,-661.000085529E-6,2.87999988,
,,,-660.000077914E-6,2.79999995,
,,,-659.000070300E-6,2.72000003,
,,,-658.000062685E-6,2.6399999,
,,,-657.000113279E-6,2.6399999,
,,,-656.000105664E-6,2.5599999,
,,,-655.000098050E-6,2.4800000,
,,,-654.000090435E-6,2.4800000,
,,,-653.000082821E-6,2.3999999,
,,,-652.000075206E-6,2.3199999,
,,,-651.000067592E-6,2.2400000,
,,,-650.000118185E-6,2.1599998,
,,,-649.000110570E-6,2.0799999,
,,,-648.000102956E-6,2.0799999,
,,,-647.000095341E-6,1.9200000,
,,,-646.000087727E-6,1.8399999,
,,,-645.000080112E-6,1.8399999,
,,,-644.000072498E-6,1.7600000,
,,,-643.000064883E-6,1.5999999,
,,,-642.000115477E-6,1.5999999,
,,,-641.000107862E-6,1.5200000,
,,,-640.000100248E-6,1.4399999,
,,,-639.000092633E-6,1.3600000,
,,,-638.000085019E-6,1.2800000,
